\begin{thebibliography}{1}

\bibitem{apengel}
Andries~P. Engelbrecht.
\newblock {\em Computational Intelligence: An Introduction}.
\newblock Wiley Publishing, 2nd edition, 2007.

\bibitem{fogarty}
Terence~C. Fogarty.
\newblock Varying the probability of mutation in the genetic algorithm.
\newblock In {\em Proceedings of the Third International Conference on Genetic
  Algorithms}, pages 104--109, San Francisco, CA, USA, 1989. Morgan Kaufmann
  Publishers Inc.

\bibitem{holland}
John~H. Holland.
\newblock {\em Adaptation in Natural and Artificial Systems: An Introductory
  Analysis with Applications to Biology, Control and Artificial Intelligence}.
\newblock MIT Press, Cambridge, MA, USA, 1992.

\end{thebibliography}
